{
  "properties": {
    "referenceModulesWithoutPluginModules": {
      "type": "array",
      "items": {
        "type": "object",
        "required": [
          "key",
          "referenceField"
        ],
        "properties": {
          "key": {
            "pattern": "^[a-zA-Z0-9-]+$",
            "type": "string"
          },
          "referenceField": {
            "type": "integer"
          }
        }
      }
    }
  }
}
